More Data Transformation – STA 199
…
Why is this useful?

We can do data transformation immediately followed by a plot!

Normally, even if we are just plotting, we use the pipe with ggplot().

Plot + data transform

bechdel

# A tibble: 1,615 × 7
   title          year gross_2013 budget_2013    roi binary clean_test
   <chr>         <dbl>      <dbl>       <dbl>  <dbl> <chr>  <chr>     
 1 21 & Over      2013   67878146    13000000  5.22  FAIL   notalk    
 2 Dredd 3D       2012   55078343    45658735  1.21  PASS   ok        
 3 12 Years a S…  2013  211714070    20000000 10.6   FAIL   notalk    
 4 2 Guns         2013  208105475    61000000  3.41  FAIL   notalk    
 5 42             2013  190040426    40000000  4.75  FAIL   men       
 6 47 Ronin       2013  184166317   225000000  0.819 FAIL   men       
 7 A Good Day t…  2013  371598396    92000000  4.04  FAIL   notalk    
 8 About Time     2013  102648667    12000000  8.55  PASS   ok        
 9 Admission      2013   36014634    13000000  2.77  PASS   ok        
10 After Earth    2013  304895295   130000000  2.35  FAIL   notalk    
# ℹ 1,605 more rows

Plot + data transform

bechdel |>
  mutate(budget_in_millions = budget_2013/1000000)

# A tibble: 1,615 × 8
   title          year gross_2013 budget_2013    roi binary clean_test
   <chr>         <dbl>      <dbl>       <dbl>  <dbl> <chr>  <chr>     
 1 21 & Over      2013   67878146    13000000  5.22  FAIL   notalk    
 2 Dredd 3D       2012   55078343    45658735  1.21  PASS   ok        
 3 12 Years a S…  2013  211714070    20000000 10.6   FAIL   notalk    
 4 2 Guns         2013  208105475    61000000  3.41  FAIL   notalk    
 5 42             2013  190040426    40000000  4.75  FAIL   men       
 6 47 Ronin       2013  184166317   225000000  0.819 FAIL   men       
 7 A Good Day t…  2013  371598396    92000000  4.04  FAIL   notalk    
 8 About Time     2013  102648667    12000000  8.55  PASS   ok        
 9 Admission      2013   36014634    13000000  2.77  PASS   ok        
10 After Earth    2013  304895295   130000000  2.35  FAIL   notalk    
# ℹ 1,605 more rows
# ℹ 1 more variable: budget_in_millions <dbl>
…
