STA 199 – Data Joining
…
Review: Pivot Longer

How do we go from this…

# A tibble: 4 × 6
  degree `2011` `2012` `2013` `2014` `2015`
  <fct>   <dbl>  <dbl>  <dbl>  <dbl>  <dbl>
1 AB2        NA      1     NA     NA      4
2 AB          2      2      4      1      3
3 BS2         2      6      1     NA      5
4 BS          5      9      4     13     10

…to this?

# A tibble: 56 × 3
  degree  year     n
  <fct>  <dbl> <dbl>
1 AB2     2011    NA
2 AB2     2012     1
3 AB2     2013    NA
4 AB2     2014    NA
5 AB2     2015     4
# ℹ 51 more rows
Reverse It: Pivot Wider

How do we get back to this…

# A tibble: 4 × 6
  degree `2011` `2012` `2013` `2014` `2015`
  <fct>   <dbl>  <dbl>  <dbl>  <dbl>  <dbl>
1 AB2        NA      1     NA     NA      4
2 AB          2      2      4      1      3
3 BS2         2      6      1     NA      5
4 BS          5      9      4     13     10

… from this?

# A tibble: 56 × 3
  degree  year     n
  <fct>  <dbl> <dbl>
1 AB2     2011    NA
2 AB2     2012     1
3 AB2     2013    NA
4 AB2     2014    NA
5 AB2     2015     4
# ℹ 51 more rows
…
Joining Data

Joining Data

What happens if we want information from two different data sets?

Joining Data: Sample Scenario

population

# A tibble: 217 × 3
   country              year population
   <chr>               <dbl>      <dbl>
 1 Afghanistan          2022    41129. 
 2 Albania              2022     2778. 
 3 Algeria              2022    44903. 
 4 American Samoa       2022       44.3
 5 Andorra              2022       79.8
 6 Angola               2022    35589. 
 7 Antigua and Barbuda  2022       93.8
 8 Argentina            2022    46235. 
 9 Armenia              2022     2780. 
10 Aruba                2022      106. 
# ℹ 207 more rows

We want to know about population in different continents.

We could use mutate to create a continent variable, but that would be terrible….

Joining Data: Sample Scenario

population

# A tibble: 217 × 3
   country              year population
   <chr>               <dbl>      <dbl>
 1 Afghanistan          2022    41129. 
 2 Albania              2022     2778. 
 3 Algeria              2022    44903. 
 4 American Samoa       2022       44.3
 5 Andorra              2022       79.8
 6 Angola               2022    35589. 
 7 Antigua and Barbuda  2022       93.8
 8 Argentina            2022    46235. 
 9 Armenia              2022     2780. 
10 Aruba                2022      106. 
# ℹ 207 more rows

continent

# A tibble: 285 × 4
   entity                code      year continent    
   <chr>                 <chr>    <dbl> <chr>        
 1 Abkhazia              OWID_ABK  2015 Asia         
 2 Afghanistan           AFG       2015 Asia         
 3 Akrotiri and Dhekelia OWID_AKD  2015 Asia         
 4 Aland Islands         ALA       2015 Europe       
 5 Albania               ALB       2015 Europe       
 6 Algeria               DZA       2015 Africa       
 7 American Samoa        ASM       2015 Oceania      
 8 Andorra               AND       2015 Europe       
 9 Angola                AGO       2015 Africa       
10 Anguilla              AIA       2015 North America
# ℹ 275 more rows
…
Your Turn

What is the result?

AE 07

Goal: Do a join!!!

Data

population

# A tibble: 217 × 3
   country              year population
   <chr>               <dbl>      <dbl>
 1 Afghanistan          2022    41129. 
 2 Albania              2022     2778. 
 3 Algeria              2022    44903. 
 4 American Samoa       2022       44.3
 5 Andorra              2022       79.8
 6 Angola               2022    35589. 
 7 Antigua and Barbuda  2022       93.8
 8 Argentina            2022    46235. 
 9 Armenia              2022     2780. 
10 Aruba                2022      106. 
# ℹ 207 more rows

continent

# A tibble: 285 × 4
   entity                code      year continent    
   <chr>                 <chr>    <dbl> <chr>        
 1 Abkhazia              OWID_ABK  2015 Asia         
 2 Afghanistan           AFG       2015 Asia         
 3 Akrotiri and Dhekelia OWID_AKD  2015 Asia         
 4 Aland Islands         ALA       2015 Europe       
 5 Albania               ALB       2015 Europe       
 6 Algeria               DZA       2015 Africa       
 7 American Samoa        ASM       2015 Oceania      
 8 Andorra               AND       2015 Europe       
 9 Angola                AGO       2015 Africa       
10 Anguilla              AIA       2015 North America
# ℹ 275 more rows
…
