Midterm Review – STA 199
…
Review: Pivot Longer

How do we go from this…

# A tibble: 4 × 6
  degree `2011` `2012` `2013` `2014` `2015`
  <fct>   <dbl>  <dbl>  <dbl>  <dbl>  <dbl>
1 AB2        NA      1     NA     NA      4
2 AB          2      2      4      1      3
3 BS2         2      6      1     NA      5
4 BS          5      9      4     13     10

…to this?

# A tibble: 56 × 3
  degree  year     n
  <fct>  <dbl> <dbl>
1 AB2     2011    NA
2 AB2     2012     1
3 AB2     2013    NA
4 AB2     2014    NA
5 AB2     2015     4
# ℹ 51 more rows
Reverse It: Pivot Wider

How do we get back to this…

# A tibble: 4 × 6
  degree `2011` `2012` `2013` `2014` `2015`
  <fct>   <dbl>  <dbl>  <dbl>  <dbl>  <dbl>
1 AB2        NA      1     NA     NA      4
2 AB          2      2      4      1      3
3 BS2         2      6      1     NA      5
4 BS          5      9      4     13     10

… from this?

# A tibble: 56 × 3
  degree  year     n
  <fct>  <dbl> <dbl>
1 AB2     2011    NA
2 AB2     2012     1
3 AB2     2013    NA
4 AB2     2014    NA
5 AB2     2015     4
# ℹ 51 more rows
…
