The Language of Models – STA 199
…
Work through the application exercise in class, and render, commit, and push your edits.

Data: Fish

library(tidyverse)
library(tidymodels)

fish <- read_csv("data/fish.csv")

Data: Fish

fish

# A tibble: 55 × 7
   species weight length_vertical length_diagonal length_cross height
   <chr>    <dbl>           <dbl>           <dbl>        <dbl>  <dbl>
 1 Bream      242            23.2            25.4         30     11.5
 2 Bream      290            24              26.3         31.2   12.5
 3 Bream      340            23.9            26.5         31.1   12.4
 4 Bream      363            26.3            29           33.5   12.7
 5 Bream      430            26.5            29           34     12.4
 6 Bream      450            26.8            29.7         34.7   13.6
 7 Bream      500            26.8            29.7         34.5   14.2
 8 Bream      390            27.6            30           35     12.7
 9 Bream      450            27.6            30           35.1   14.0
10 Bream      500            28.5            30.7         36.2   14.2
# ℹ 45 more rows
# ℹ 1 more variable: width <dbl>
…
Model prediction: full data

Goal: Calculate predicted weights for all fish in the data.

fish_hw_aug <- augment(fish_hw_fit, new_data = fish)

Model prediction: full data

Goal: Calculate predicted weights for all fish in the data.

fish_hw_aug <- augment(fish_hw_fit, new_data = fish)
fish_hw_aug

# A tibble: 55 × 9
   .pred .resid species weight height length_vertical length_diagonal
   <dbl>  <dbl> <chr>    <dbl>  <dbl>           <dbl>           <dbl>
 1  413. -171.  Bream      242   11.5            23.2            25.4
 2  472. -182.  Bream      290   12.5            24              26.3
 3  466. -126.  Bream      340   12.4            23.9            26.5
 4  487. -124.  Bream      363   12.7            26.3            29  
 5  470.  -39.6 Bream      430   12.4            26.5            29  
 6  540.  -90.2 Bream      450   13.6            26.8            29.7
 7  575.  -75.3 Bream      500   14.2            26.8            29.7
 8  483.  -93.4 Bream      390   12.7            27.6            30  
 9  565. -115.  Bream      450   14.0            27.6            30  
10  578.  -78.2 Bream      500   14.2            28.5            30.7
# ℹ 45 more rows
# ℹ 2 more variables: length_cross <dbl>, width <dbl>
…
