Linear Regression – STA 199
…
Source: tylervigen.com/spurious-correlations

Linear regression with a single predictor

Data overview

movie_scores |>
  select(critics, audience)

# A tibble: 146 × 2
   critics audience
     <int>    <int>
 1      74       86
 2      85       80
 3      80       90
 4      18       84
 5      14       28
 6      63       62
 7      42       53
 8      86       64
 9      99       82
10      89       87
# ℹ 136 more rows
…
# A tibble: 2 × 5
  term        estimate std.error statistic  p.value
  <chr>          <dbl>     <dbl>     <dbl>    <dbl>
1 (Intercept)   32.3      2.34        13.8 4.03e-28
2 critics        0.519    0.0345      15.0 2.70e-31

# A tibble: 1 × 1
      r
  <dbl>
1 0.781

Prediction: linear model

# A tibble: 146 × 4
   critics audience .pred .resid
     <int>    <int> <dbl>  <dbl>
 1      74       86  70.7  15.3 
 2      85       80  76.4   3.60
 3      80       90  73.8  16.2 
 4      18       84  41.7  42.3 
 5      14       28  39.6 -11.6 
 6      63       62  65.0  -2.99
 7      42       53  54.1  -1.10
 8      86       64  76.9 -12.9 
 9      99       82  83.7  -1.66
10      89       87  78.5   8.52
# ℹ 136 more rows
…
\(i^{th}\) observation (\(i\) from \(1\) to \(N\)):

\(y_i\) : \(i^{th}\) outcome

\(x_i\) : \(i^{th}\) explanatory variable

\(\hat{y}\) : \(i^{th}\) predicted outcome

\(e\) : \(i^{th}\) residual

Notation: Example

Back to the movies: audience scores predicted by critic scores.

# A tibble: 146 × 4
   critics audience .pred .resid
     <int>    <int> <dbl>  <dbl>
 1      74       86  70.7  15.3 
 2      85       80  76.4   3.60
 3      80       90  73.8  16.2 
 4      18       84  41.7  42.3 
 5      14       28  39.6 -11.6 
 6      63       62  65.0  -2.99
 7      42       53  54.1  -1.10
 8      86       64  76.9 -12.9 
 9      99       82  83.7  -1.66
10      89       87  78.5   8.52
# ℹ 136 more rows
…
