Multiple Linear Regression – STA 199
…
Regression with Categorical Variables

Regression with Categorical Variables

It’s possible to want to model an outcome based on a categorical predictor:

\[ Y = \beta_0 + \beta_1 X + \epsilon\]

What does this even mean when \(x\) is categorical ???

Movie Example

Example Data

# A tibble: 146 × 3
   critics audience imdb_cat
     <int>    <int> <chr>   
 1      74       86 High    
 2      85       80 Med     
 3      80       90 High    
 4      18       84 Low     
 5      14       28 Low     
 6      63       62 Med     
 7      42       53 Med     
 8      86       64 Med     
 9      99       82 High    
10      89       87 High    
# ℹ 136 more rows
…
