STA 199 – Logistic regression
…
Estimation

We estimate the parameters \(\beta_0,\,\beta_1\) using maximum likelihood (don’t worry about it) to get the “best fitting” S-curve;

The fitted model is

\[
\log\left(\frac{\widehat{p}}{1-\widehat{p}}\right)
=
b_0+b_1x.
\]

Today’s data

# A tibble: 3,921 × 6
   spam  dollar viagra winner password exclaim_mess
   <fct>  <dbl>  <dbl> <fct>     <dbl>        <dbl>
 1 0          0      0 no            0            0
 2 0          0      0 no            0            1
 3 0          4      0 no            0            6
 4 0          0      0 no            0           48
 5 0          0      0 no            2            1
 6 0          0      0 no            2            1
 7 0          0      0 no            0            1
 8 0          0      0 no            0           18
 9 0          0      0 no            0            1
10 0          0      0 no            0            0
# ℹ 3,911 more rows
…
