More logistic regression – STA 199
…
.pred_class: model prediction (\(\hat{y}\)) based on a 50% threshold;

.pred_0: model estimate of \(P(y=0)\);

.pred_1: model estimate of \(P(y=1) = 1 - P(y = 0)\).

The augment function

The augment function takes a data frame and “augments” it by adding three new columns on the left that describe the model predictions for each row:

spam_aug_all <- augment(spam_all_fit, email)
spam_aug_all

# A tibble: 3,921 × 24
   .pred_class .pred_0  .pred_1 spam  to_multiple from     cc
   <fct>         <dbl>    <dbl> <fct> <fct>       <fct> <int>
 1 0             0.867 1.33e- 1 0     0           1         0
 2 0             0.943 5.70e- 2 0     0           1         0
 3 0             0.942 5.78e- 2 0     0           1         0
 4 0             0.920 7.96e- 2 0     0           1         0
 5 0             0.903 9.74e- 2 0     0           1         0
 6 0             0.901 9.87e- 2 0     0           1         0
 7 0             1.00  7.89e-12 0     1           1         0
 8 0             1.00  1.24e-12 0     1           1         1
 9 0             0.862 1.38e- 1 0     0           1         0
10 0             0.922 7.76e- 2 0     0           1         0
# ℹ 3,911 more rows
# ℹ 17 more variables: sent_email <fct>, time <dttm>, image <dbl>,
#   attach <dbl>, dollar <dbl>, winner <fct>, inherit <dbl>,
#   viagra <dbl>, password <dbl>, num_char <dbl>, line_breaks <int>,
#   format <fct>, re_subj <fct>, exclaim_subj <dbl>,
#   urgent_subj <fct>, exclaim_mess <dbl>, number <fct>
…
This allows us to reproduce results by setting that seed.

Which seed you pick doesn’t matter, as long as you don’t try a bunch of seeds and pick the one that gives you the best performance.

Accessing the data

email_train <- training(email_split)
email_test <- testing(email_split)

The training set

email_train

# A tibble: 3,136 × 21
   spam  to_multiple from     cc sent_email time                image
   <fct> <fct>       <fct> <int> <fct>      <dttm>              <dbl>
 1 0     0           1         0 0          2012-02-18 14:20:54     0
 2 1     0           1         0 0          2012-03-10 17:43:58     0
 3 0     1           1         0 0          2012-03-06 09:10:00     0
 4 1     0           1         0 0          2012-03-18 09:26:41     0
 5 0     0           1         0 1          2012-03-15 20:47:33     0
 6 0     0           1         0 1          2012-03-31 09:24:03     0
 7 0     0           1         0 0          2012-02-16 11:25:22     0
 8 0     0           1         0 0          2012-02-24 18:18:35     0
 9 0     1           1         0 1          2012-01-22 04:02:27     0
10 0     0           1         0 0          2012-02-10 19:46:30     0
# ℹ 3,126 more rows
# ℹ 14 more variables: attach <dbl>, dollar <dbl>, winner <fct>,
#   inherit <dbl>, viagra <dbl>, password <dbl>, num_char <dbl>,
#   line_breaks <int>, format <fct>, re_subj <fct>,
#   exclaim_subj <dbl>, urgent_subj <fct>, exclaim_mess <dbl>,
#   number <fct>

The testing data

email_test

# A tibble: 785 × 21
   spam  to_multiple from     cc sent_email time                image
   <fct> <fct>       <fct> <int> <fct>      <dttm>              <dbl>
 1 0     1           1         1 1          2012-01-01 13:45:21     1
 2 0     0           1         0 1          2012-01-01 13:23:44     0
 3 0     0           1         1 1          2012-01-01 18:40:14     0
 4 0     0           1         0 0          2012-01-01 21:51:24     0
 5 0     0           1         2 0          2012-01-01 23:07:57     0
 6 0     0           1         0 0          2012-01-02 09:35:56     0
 7 0     0           1         0 0          2012-01-02 10:12:51     0
 8 0     0           1         5 0          2012-01-02 12:48:26     0
 9 0     1           1         1 0          2012-01-02 10:27:07     0
10 0     0           1         7 0          2012-01-02 19:07:51     0
# ℹ 775 more rows
# ℹ 14 more variables: attach <dbl>, dollar <dbl>, winner <fct>,
#   inherit <dbl>, viagra <dbl>, password <dbl>, num_char <dbl>,
#   line_breaks <int>, format <fct>, re_subj <fct>,
#   exclaim_subj <dbl>, urgent_subj <fct>, exclaim_mess <dbl>,
#   number <fct>
…
Data

The U.S. Forest Service maintains machine learning models to predict whether a plot of land is “forested.”

This classification is important for research, legislation, land management, etc. purposes.

Plots are typically remeasured every 10 years.

The forested dataset contains the most recent measurement per plot.

Data: forested

forested

# A tibble: 7,107 × 19
   forested  year elevation eastness northness roughness tree_no_tree
   <fct>    <dbl>     <dbl>    <dbl>     <dbl>     <dbl> <fct>       
 1 Yes       2005       881       90        43        63 Tree        
 2 Yes       2005       113      -25        96        30 Tree        
 3 No        2005       164      -84        53        13 Tree        
 4 Yes       2005       299       93        34         6 No tree     
 5 Yes       2005       806       47       -88        35 Tree        
 6 Yes       2005       736      -27       -96        53 Tree        
 7 Yes       2005       636      -48        87         3 No tree     
 8 Yes       2005       224      -65       -75         9 Tree        
 9 Yes       2005        52      -62        78        42 Tree        
10 Yes       2005      2240      -67       -74        99 No tree     
# ℹ 7,097 more rows
# ℹ 12 more variables: dew_temp <dbl>, precip_annual <dbl>,
#   temp_annual_mean <dbl>, temp_annual_min <dbl>,
#   temp_annual_max <dbl>, temp_january_min <dbl>, vapor_min <dbl>,
#   vapor_max <dbl>, canopy_cover <dbl>, lon <dbl>, lat <dbl>,
#   land_type <fct>
…
