Quantifying uncertainty with bootstrap intervals – STA 199
…
Take bootstrap samples

Take 100 bootstrap samples and fit models to each one:

set.seed(1234)
n = 100

boot_fits <- duke_forest |>
  specify(price ~ area) |>
  generate(reps = n, type = "bootstrap") |>
  fit()

boot_fits

# A tibble: 200 × 3
# Groups:   replicate [100]
   replicate term      estimate
       <int> <chr>        <dbl>
 1         1 intercept  177388.
 2         1 area          125.
 3         2 intercept  161078.
 4         2 area          150.
 5         3 intercept  202354.
 6         3 area          118.
 7         4 intercept  120750.
 8         4 area          162.
 9         5 intercept   52127.
10         5 area          180.
# ℹ 190 more rows
…
