STA 199 – Hypothesis Testing
…
Simulate null distribution

set.seed(20241118)
null_dist <- duke_forest |>
  specify(price ~ area) |>
  hypothesize(null = "independence") |>
  generate(reps = 100, type = "permute") |>
  fit()

View null distribution

null_dist

# A tibble: 200 × 3
# Groups:   replicate [100]
   replicate term        estimate
       <int> <chr>          <dbl>
 1         1 intercept 547294.   
 2         1 area           4.54 
 3         2 intercept 568599.   
 4         2 area          -3.13 
 5         3 intercept 561547.   
 6         3 area          -0.593
 7         4 intercept 526286.   
 8         4 area          12.1  
 9         5 intercept 651476.   
10         5 area         -33.0  
# ℹ 190 more rows
…
